%YAML 1.1
%TAG !u! tag:unity3d.com,2011:
--- !u!114 &11400000
MonoBehaviour:
  m_ObjectHideFlags: 0
  m_PrefabParentObject: {fileID: 0}
  m_PrefabInternal: {fileID: 0}
  m_GameObject: {fileID: 0}
  m_Enabled: 1
  m_EditorHideFlags: 0
  m_Script: {fileID: 11500000, guid: b063458dfb7d6fe4495f3a307df8eadd, type: 3}
  m_Name: NoteTrack
  m_EditorClassIdentifier: 
  AudioTrack: {fileID: 8300000, guid: 2ee0aa14943a82b4c93a287b8e146c6c, type: 3}
  BeatsPerMinute: 120
  BeatsPerMeasure: 4
  NoteDivisor: 4
  Bars:
  - Notes:
    - NoteFraction: 4
      C4: 1
      D4: 0
      E4: 0
      F4: 0
    - NoteFraction: 4
      C4: 1
      D4: 0
      E4: 0
      F4: 0
    - NoteFraction: 4
      C4: 1
      D4: 0
      E4: 0
      F4: 0
    - NoteFraction: 4
      C4: 0
      D4: 0
      E4: 0
      F4: 1
  - Notes:
    - NoteFraction: 4
      C4: 1
      D4: 0
      E4: 0
      F4: 0
    - NoteFraction: 4
      C4: 1
      D4: 0
      E4: 0
      F4: 0
    - NoteFraction: 4
      C4: 1
      D4: 0
      E4: 0
      F4: 0
    - NoteFraction: 4
      C4: 0
      D4: 0
      E4: 0
      F4: 1
  - Notes:
    - NoteFraction: 4
      C4: 1
      D4: 0
      E4: 0
      F4: 0
    - NoteFraction: 4
      C4: 1
      D4: 0
      E4: 0
      F4: 0
    - NoteFraction: 4
      C4: 1
      D4: 0
      E4: 0
      F4: 0
    - NoteFraction: 4
      C4: 0
      D4: 0
      E4: 0
      F4: 1
  - Notes:
    - NoteFraction: 4
      C4: 1
      D4: 0
      E4: 0
      F4: 0
    - NoteFraction: 4
      C4: 1
      D4: 0
      E4: 0
      F4: 0
    - NoteFraction: 4
      C4: 1
      D4: 0
      E4: 0
      F4: 0
    - NoteFraction: 4
      C4: 0
      D4: 0
      E4: 0
      F4: 1
  - Notes:
    - NoteFraction: 4
      C4: 1
      D4: 0
      E4: 0
      F4: 0
    - NoteFraction: 4
      C4: 1
      D4: 0
      E4: 0
      F4: 0
    - NoteFraction: 4
      C4: 1
      D4: 0
      E4: 0
      F4: 0
    - NoteFraction: 4
      C4: 0
      D4: 0
      E4: 0
      F4: 1
  - Notes:
    - NoteFraction: 4
      C4: 1
      D4: 0
      E4: 0
      F4: 0
    - NoteFraction: 4
      C4: 1
      D4: 0
      E4: 0
      F4: 0
    - NoteFraction: 4
      C4: 1
      D4: 0
      E4: 0
      F4: 0
    - NoteFraction: 4
      C4: 0
      D4: 0
      E4: 0
      F4: 1
  - Notes:
    - NoteFraction: 4
      C4: 1
      D4: 0
      E4: 0
      F4: 0
    - NoteFraction: 4
      C4: 1
      D4: 0
      E4: 0
      F4: 0
    - NoteFraction: 4
      C4: 1
      D4: 0
      E4: 0
      F4: 0
    - NoteFraction: 4
      C4: 0
      D4: 0
      E4: 0
      F4: 1
  - Notes:
    - NoteFraction: 4
      C4: 1
      D4: 0
      E4: 0
      F4: 0
    - NoteFraction: 4
      C4: 1
      D4: 0
      E4: 0
      F4: 0
    - NoteFraction: 4
      C4: 1
      D4: 0
      E4: 0
      F4: 0
    - NoteFraction: 4
      C4: 0
      D4: 0
      E4: 0
      F4: 1
  - Notes:
    - NoteFraction: 4
      C4: 1
      D4: 0
      E4: 0
      F4: 0
    - NoteFraction: 4
      C4: 1
      D4: 0
      E4: 0
      F4: 0
    - NoteFraction: 4
      C4: 1
      D4: 0
      E4: 0
      F4: 0
    - NoteFraction: 4
      C4: 0
      D4: 0
      E4: 0
      F4: 1
  - Notes:
    - NoteFraction: 4
      C4: 1
      D4: 0
      E4: 0
      F4: 0
    - NoteFraction: 4
      C4: 1
      D4: 0
      E4: 0
      F4: 0
    - NoteFraction: 4
      C4: 1
      D4: 0
      E4: 0
      F4: 0
    - NoteFraction: 4
      C4: 0
      D4: 0
      E4: 0
      F4: 1
  - Notes:
    - NoteFraction: 4
      C4: 1
      D4: 0
      E4: 0
      F4: 0
    - NoteFraction: 4
      C4: 1
      D4: 0
      E4: 0
      F4: 0
    - NoteFraction: 4
      C4: 1
      D4: 0
      E4: 0
      F4: 0
    - NoteFraction: 4
      C4: 0
      D4: 0
      E4: 0
      F4: 1
  - Notes:
    - NoteFraction: 4
      C4: 1
      D4: 0
      E4: 0
      F4: 0
    - NoteFraction: 4
      C4: 1
      D4: 0
      E4: 0
      F4: 0
    - NoteFraction: 4
      C4: 1
      D4: 0
      E4: 0
      F4: 0
    - NoteFraction: 4
      C4: 0
      D4: 0
      E4: 0
      F4: 1
  - Notes:
    - NoteFraction: 4
      C4: 1
      D4: 0
      E4: 0
      F4: 0
    - NoteFraction: 4
      C4: 1
      D4: 0
      E4: 0
      F4: 0
    - NoteFraction: 4
      C4: 1
      D4: 0
      E4: 0
      F4: 0
    - NoteFraction: 4
      C4: 0
      D4: 0
      E4: 0
      F4: 1
  - Notes:
    - NoteFraction: 4
      C4: 1
      D4: 0
      E4: 0
      F4: 0
    - NoteFraction: 4
      C4: 1
      D4: 0
      E4: 0
      F4: 0
    - NoteFraction: 4
      C4: 1
      D4: 0
      E4: 0
      F4: 0
    - NoteFraction: 4
      C4: 0
      D4: 0
      E4: 0
      F4: 1
  - Notes:
    - NoteFraction: 4
      C4: 1
      D4: 0
      E4: 0
      F4: 0
    - NoteFraction: 4
      C4: 1
      D4: 0
      E4: 0
      F4: 0
    - NoteFraction: 4
      C4: 1
      D4: 0
      E4: 0
      F4: 0
    - NoteFraction: 4
      C4: 0
      D4: 0
      E4: 0
      F4: 1
  - Notes:
    - NoteFraction: 4
      C4: 1
      D4: 0
      E4: 0
      F4: 0
    - NoteFraction: 4
      C4: 1
      D4: 0
      E4: 0
      F4: 0
    - NoteFraction: 4
      C4: 1
      D4: 0
      E4: 0
      F4: 0
    - NoteFraction: 4
      C4: 0
      D4: 0
      E4: 0
      F4: 1
  - Notes:
    - NoteFraction: 4
      C4: 1
      D4: 0
      E4: 0
      F4: 0
    - NoteFraction: 4
      C4: 1
      D4: 0
      E4: 0
      F4: 0
    - NoteFraction: 4
      C4: 1
      D4: 0
      E4: 0
      F4: 0
    - NoteFraction: 4
      C4: 0
      D4: 0
      E4: 0
      F4: 1
  - Notes:
    - NoteFraction: 4
      C4: 1
      D4: 0
      E4: 0
      F4: 0
    - NoteFraction: 4
      C4: 1
      D4: 0
      E4: 0
      F4: 0
    - NoteFraction: 4
      C4: 1
      D4: 0
      E4: 0
      F4: 0
    - NoteFraction: 4
      C4: 0
      D4: 0
      E4: 0
      F4: 1
  - Notes:
    - NoteFraction: 4
      C4: 1
      D4: 0
      E4: 0
      F4: 0
    - NoteFraction: 4
      C4: 1
      D4: 0
      E4: 0
      F4: 0
    - NoteFraction: 4
      C4: 1
      D4: 0
      E4: 0
      F4: 0
    - NoteFraction: 4
      C4: 0
      D4: 0
      E4: 0
      F4: 1
  - Notes:
    - NoteFraction: 4
      C4: 1
      D4: 0
      E4: 0
      F4: 0
    - NoteFraction: 4
      C4: 1
      D4: 0
      E4: 0
      F4: 0
    - NoteFraction: 4
      C4: 1
      D4: 0
      E4: 0
      F4: 0
    - NoteFraction: 4
      C4: 0
      D4: 0
      E4: 0
      F4: 1
  - Notes:
    - NoteFraction: 4
      C4: 1
      D4: 0
      E4: 0
      F4: 0
    - NoteFraction: 4
      C4: 1
      D4: 0
      E4: 0
      F4: 0
    - NoteFraction: 4
      C4: 1
      D4: 0
      E4: 0
      F4: 0
    - NoteFraction: 4
      C4: 0
      D4: 0
      E4: 0
      F4: 1
  - Notes:
    - NoteFraction: 4
      C4: 1
      D4: 0
      E4: 0
      F4: 0
    - NoteFraction: 4
      C4: 1
      D4: 0
      E4: 0
      F4: 0
    - NoteFraction: 4
      C4: 1
      D4: 0
      E4: 0
      F4: 0
    - NoteFraction: 4
      C4: 0
      D4: 0
      E4: 0
      F4: 1
  - Notes:
    - NoteFraction: 4
      C4: 1
      D4: 0
      E4: 0
      F4: 0
    - NoteFraction: 4
      C4: 1
      D4: 0
      E4: 0
      F4: 0
    - NoteFraction: 4
      C4: 1
      D4: 0
      E4: 0
      F4: 0
    - NoteFraction: 4
      C4: 0
      D4: 0
      E4: 0
      F4: 1
  - Notes:
    - NoteFraction: 4
      C4: 1
      D4: 0
      E4: 0
      F4: 0
    - NoteFraction: 4
      C4: 1
      D4: 0
      E4: 0
      F4: 0
    - NoteFraction: 4
      C4: 1
      D4: 0
      E4: 0
      F4: 0
    - NoteFraction: 4
      C4: 0
      D4: 0
      E4: 0
      F4: 1
  - Notes:
    - NoteFraction: 4
      C4: 1
      D4: 0
      E4: 0
      F4: 0
    - NoteFraction: 4
      C4: 1
      D4: 0
      E4: 0
      F4: 0
    - NoteFraction: 4
      C4: 1
      D4: 0
      E4: 0
      F4: 0
    - NoteFraction: 4
      C4: 0
      D4: 0
      E4: 0
      F4: 1
  - Notes:
    - NoteFraction: 4
      C4: 1
      D4: 0
      E4: 0
      F4: 0
    - NoteFraction: 4
      C4: 1
      D4: 0
      E4: 0
      F4: 0
    - NoteFraction: 4
      C4: 1
      D4: 0
      E4: 0
      F4: 0
    - NoteFraction: 4
      C4: 0
      D4: 0
      E4: 0
      F4: 1
  - Notes:
    - NoteFraction: 4
      C4: 1
      D4: 0
      E4: 0
      F4: 0
    - NoteFraction: 4
      C4: 1
      D4: 0
      E4: 0
      F4: 0
    - NoteFraction: 4
      C4: 1
      D4: 0
      E4: 0
      F4: 0
    - NoteFraction: 4
      C4: 0
      D4: 0
      E4: 0
      F4: 1
  - Notes:
    - NoteFraction: 4
      C4: 1
      D4: 0
      E4: 0
      F4: 0
    - NoteFraction: 4
      C4: 1
      D4: 0
      E4: 0
      F4: 0
    - NoteFraction: 4
      C4: 1
      D4: 0
      E4: 0
      F4: 0
    - NoteFraction: 4
      C4: 0
      D4: 0
      E4: 0
      F4: 1
  - Notes:
    - NoteFraction: 4
      C4: 1
      D4: 0
      E4: 0
      F4: 0
    - NoteFraction: 4
      C4: 1
      D4: 0
      E4: 0
      F4: 0
    - NoteFraction: 4
      C4: 1
      D4: 0
      E4: 0
      F4: 0
    - NoteFraction: 4
      C4: 0
      D4: 0
      E4: 0
      F4: 1
  - Notes:
    - NoteFraction: 4
      C4: 1
      D4: 0
      E4: 0
      F4: 0
    - NoteFraction: 4
      C4: 1
      D4: 0
      E4: 0
      F4: 0
    - NoteFraction: 4
      C4: 1
      D4: 0
      E4: 0
      F4: 0
    - NoteFraction: 4
      C4: 0
      D4: 0
      E4: 0
      F4: 1
